<svg width="19" height="26" viewBox="0 0 19 26" fill="none" xmlns="http://www.w3.org/2000/svg">
<g filter="url(#filter0_dii)">
<path d="M9.50392 1.90079C9.92009 1.34498 10.8015 1.73365 10.6717 2.41577L9.27067 9.78215C9.1941 10.1847 9.50185 10.558 9.91165 10.5595L15.4369 10.5806C15.9643 10.5826 16.2732 11.1754 15.9726 11.6089L8.09982 22.9625C7.70016 23.5389 6.79664 23.1688 6.91611 22.4777L8.35666 14.1443C8.4257 13.7449 8.11906 13.3792 7.71371 13.3777L2.23221 13.3568C1.69384 13.3547 1.3877 12.7401 1.71039 12.3092L9.50392 1.90079Z" fill="#EF476F"/>
<path d="M9.91415 9.90454L11.3152 2.53816C11.5747 1.17391 9.81194 0.39658 8.9796 1.50819L1.18607 11.9166C0.540696 12.7785 1.15297 14.0077 2.22972 14.0118L7.71121 14.0327L6.27066 22.3661C6.03173 23.7484 7.83876 24.4885 8.63809 23.3358L16.5109 11.9821C17.112 11.1152 16.4943 9.92962 15.4394 9.9256L9.91415 9.90454Z" stroke="white" stroke-width="1.31003"/>
</g>
<defs>
<filter id="filter0_dii" x="0.265625" y="-0.989718" width="19.7567" height="28.1716" filterUnits="userSpaceOnUse" color-interpolation-filters="sRGB">
<feFlood flood-opacity="0" result="BackgroundImageFix"/>
<feColorMatrix in="SourceAlpha" type="matrix" values="0 0 0 0 0 0 0 0 0 0 0 0 0 0 0 0 0 0 127 0"/>
<feOffset dx="0.655015" dy="1.31003"/>
<feColorMatrix type="matrix" values="0 0 0 0 0.74902 0 0 0 0 0.239216 0 0 0 0 0.239216 0 0 0 1 0"/>
<feBlend mode="normal" in2="BackgroundImageFix" result="effect1_dropShadow"/>
<feBlend mode="normal" in="SourceGraphic" in2="effect1_dropShadow" result="shape"/>
<feColorMatrix in="SourceAlpha" type="matrix" values="0 0 0 0 0 0 0 0 0 0 0 0 0 0 0 0 0 0 127 0" result="hardAlpha"/>
<feOffset dx="2.62006" dy="2.62006"/>
<feGaussianBlur stdDeviation="1.31003"/>
<feComposite in2="hardAlpha" operator="arithmetic" k2="-1" k3="1"/>
<feColorMatrix type="matrix" values="0 0 0 0 1 0 0 0 0 1 0 0 0 0 1 0 0 0 0.55 0"/>
<feBlend mode="overlay" in2="shape" result="effect2_innerShadow"/>
<feColorMatrix in="SourceAlpha" type="matrix" values="0 0 0 0 0 0 0 0 0 0 0 0 0 0 0 0 0 0 127 0" result="hardAlpha"/>
<feOffset dy="-1.31003"/>
<feGaussianBlur stdDeviation="0.655015"/>
<feComposite in2="hardAlpha" operator="arithmetic" k2="-1" k3="1"/>
<feColorMatrix type="matrix" values="0 0 0 0 0 0 0 0 0 0 0 0 0 0 0 0 0 0 0.25 0"/>
<feBlend mode="normal" in2="effect2_innerShadow" result="effect3_innerShadow"/>
</filter>
</defs>
</svg>
