<svg width="728" height="473" viewBox="0 0 728 473" fill="none" xmlns="http://www.w3.org/2000/svg">
<rect width="683" height="473" rx="50" fill="white"/>
<path d="M437.65 125.322C439.113 89.0938 408.732 73 377.668 73C346.61 73 312.803 81.0438 309.876 129.215C307.992 160.203 324.521 179.276 372.114 179.276C388.167 179.276 400.642 176.747 410.196 172.232L433.986 193.359L422.292 164.151C432.651 154.529 437.016 140.952 437.65 125.322Z" fill="#1E064B"/>
<path d="M177.701 240.879L166.031 379.543C166.031 379.543 164.812 387.947 171.061 387.965C181.347 387.989 222.251 387.965 222.251 387.965C222.251 387.965 214.508 386.216 214.606 382.279C214.715 377.636 228.244 239.568 228.244 239.568L177.701 240.879Z" fill="#F5492D"/>
<path d="M225.574 385.448C223.55 385.454 184.481 385.576 174.463 385.448C170.098 385.393 169.336 381.566 169.299 379.092C169.281 377.904 169.433 377.026 169.433 377.026L169.738 373.425L170.512 364.242L171.195 356.125L172.073 345.698L172.811 336.899L181.103 238.368L231.653 237.058C231.653 237.058 225.958 294.839 221.928 336.899C221.477 341.585 221.05 346.076 220.654 350.275C220.526 351.615 220.404 352.925 220.282 354.199C219.91 358.178 219.568 361.835 219.27 365.058C219.111 366.758 218.971 368.337 218.837 369.787C218.325 375.46 218.02 379.08 218.02 379.769C218.02 380.171 218.05 380.543 218.117 380.89C218.941 385.302 224.818 385.448 225.574 385.448Z" fill="#F5492D"/>
<path d="M54.9386 165.425L83.3626 279.525L87.2524 295.15L100.489 348.3H346.409L297.622 165.425H54.9386Z" fill="#FA7205"/>
<path d="M54.9386 165.425L51 166.735L95.2517 352.267L100.489 348.3L54.9386 165.425Z" fill="#FF6D3F"/>
<path d="M95.2516 352.267H339.66L346.409 348.3H100.489L95.2516 352.267Z" fill="#FF5656"/>
<path d="M181.087 388.013L234.002 388.013L234.002 385.502L181.087 385.502L181.087 388.013Z" fill="#F5492D"/>
<path d="M220.55 352.267L220.276 354.187L170.506 364.235L171.189 356.124L171.512 352.267H220.55Z" fill="#FA7205"/>
<path d="M225.574 385.448C223.55 385.454 184.48 385.576 174.463 385.448C170.098 385.393 169.336 381.566 169.299 379.092L218.831 369.775C218.319 375.448 218.014 379.068 218.014 379.757C218.014 380.159 218.044 380.531 218.111 380.878C218.94 385.302 224.818 385.448 225.574 385.448Z" fill="#FA7205"/>
<path d="M208.521 311.28L100.489 348.3L87.2526 295.15L208.521 311.28Z" fill="#F5492D"/>
<path d="M54.9386 165.425H297.622L336.996 312.396H91.4898L54.9386 165.425Z" fill="#1E064B"/>
<path d="M54.9386 165.425H297.622L336.996 312.396H91.4898L54.9386 165.425Z" fill="url(#paint0_linear)" style="mix-blend-mode:overlay"/>
<path d="M136.735 87.5461C136.241 86.3822 130.461 74.03 110.854 80.7759C110.854 80.7759 120.804 78.2713 124.054 81.824C124.054 81.824 115.591 79.1367 110.951 82.8173C106.311 86.498 106.75 96.9245 107.884 99.9775C109.018 103.031 115.701 111.708 119.371 111.257C120.761 111.087 122.188 110.447 123.432 109.709C123.072 111.44 122.785 113.311 122.609 115.34C120.956 134.139 134.851 146.577 140.735 142.366C144.509 139.667 148.435 146.364 148.435 146.364L176.548 97.8142C176.542 97.8142 149.728 72.5919 136.735 87.5461Z" fill="#300B39"/>
<path d="M189.474 201.897C162.843 213.792 142.826 171.805 144.564 171.373C147.228 168.362 149.972 157.637 148.021 142.202L149.405 142.299L172.561 144.012C172.561 144.012 172.921 151.19 173.72 157.887C174.25 162.293 174.976 166.486 175.914 168.32C176.189 168.862 181.207 169.587 181.225 169.599C181.609 170.026 196.583 198.728 189.474 201.897Z" fill="#FDAB74"/>
<path d="M331.722 179.234L337.16 186.778C337.16 186.778 334.783 188.826 330.99 192.074C329.844 193.036 329.149 193.56 329.149 193.56C326.082 196.132 322.32 199.124 318.223 202.397L318.175 202.451C311.035 207.942 302.902 213.993 295.518 218.661C294.848 219.075 294.189 219.478 293.543 219.868C289.062 222.537 284.928 224.633 281.568 225.772C281.184 225.913 280.843 225.998 280.41 226.095C270.618 228.728 250.858 225.297 231.482 219.386C228.805 218.576 226.165 217.71 223.593 216.888C214.081 213.713 205.113 210.081 197.839 206.37C193.467 204.194 189.651 202.007 186.779 199.874C185.755 199.136 184.779 198.442 183.956 197.68C168.22 184.804 175.622 172.305 178.609 172.287C182.341 172.244 187.578 173.225 193.632 174.779C203.174 177.351 214.929 181.44 226.452 185.693C232.787 188.009 239.073 190.38 244.975 192.445C248.505 193.762 251.87 194.95 254.98 196.016C260.93 198.027 265.875 199.496 269.314 200.026C271.551 200.386 275.703 199.599 280.794 198.21C282.148 197.844 283.568 197.43 285.05 196.991C293.256 194.499 303.103 190.855 311.663 187.455C315.876 185.809 319.796 184.2 323.046 182.854C328.283 180.696 331.722 179.234 331.722 179.234Z" fill="#FDAB74"/>
<path d="M224.903 217.314C221.855 219.648 218.099 221.69 213.478 223.207C215.392 230.227 216.971 236.516 217.746 240.757C218.971 247.479 220.148 258.941 221.166 271.092C221.459 274.602 221.739 278.167 222.001 281.689C222.879 293.463 223.58 304.779 224.001 312H107.336C109.506 294.974 112.451 275.79 114.683 257.704C115.786 248.722 116.719 240.02 117.298 231.988C117.798 225.041 118.609 218.862 119.658 213.359C119.664 213.317 119.67 213.274 119.682 213.231C120.566 208.606 121.621 204.468 122.785 200.769V200.763C128.651 182.122 137.388 174.529 142.466 171.562C143.704 170.837 144.722 170.392 145.423 170.124C146.125 169.862 146.515 169.77 146.515 169.77C152.752 181.873 168.263 187.875 177.274 190.428C181.115 191.519 183.779 191.982 184.042 192.025C184.048 192.025 184.054 192.025 184.06 192.025C184.06 192.025 184.06 191.988 184.06 191.915C184.06 191.879 184.06 191.83 184.066 191.781C184.273 184.859 182.773 176.681 181.871 172.451C181.493 170.672 181.213 169.587 181.213 169.587C181.78 169.654 182.554 169.758 183.475 169.886C188.395 170.575 197.388 172.037 200.284 173.097C204.344 174.59 238.097 189.971 238.097 189.971C238.115 190.264 238.719 206.754 224.903 217.314Z" fill="white"/>
<path d="M213.893 223C218.604 221.472 222.433 219.416 225.541 217.065C239.626 206.43 239.01 189.823 238.992 189.528C238.992 189.528 204.582 174.039 200.442 172.535C197.49 171.467 188.322 169.994 183.306 169.301C182.367 169.172 181.578 169.068 181 169C181 169 181.286 170.092 181.671 171.884C182.591 176.144 184.12 184.379 183.909 191.351C183.903 191.4 183.903 191.449 183.903 191.486V191.486V191.597H183.884C197.509 199.2 209.567 215.7 213.893 223Z" fill="#70E0DB"/>
<path d="M172.561 144.018C172.561 144.018 172.915 151.19 173.719 157.893C161.019 159.081 152.923 148.362 149.399 142.305L172.561 144.018Z" fill="#F68F53"/>
<path d="M177.567 149.844C177.567 149.844 147.692 153.993 145.387 135.359C143.088 116.724 137.68 104.707 156.66 101.27C175.64 97.8328 180.231 104.487 182.511 110.52C184.791 116.553 185.279 148.284 177.567 149.844Z" fill="#FDAB74"/>
<path d="M180.353 100.264C175.042 95.2244 171.695 96.8819 169.939 98.8075C152.478 91.8179 143.558 106.394 143.558 106.394C143.192 120.014 134.479 128.85 134.479 128.85C134.479 128.85 140.351 131.55 152.532 126.784C156.252 125.328 159.349 122.177 161.861 118.509C157.812 127.662 151.636 134.651 151.636 134.651C165.812 125.87 169.293 104.249 169.622 101.964C171.652 103.384 175.689 106.504 177.213 109.862C179.286 114.426 181.152 124.115 183.962 123.433C183.968 123.439 188.322 107.82 180.353 100.264Z" fill="#300B39"/>
<path d="M331.722 179.234C331.722 179.234 334.331 176.93 335.849 174.645C337.374 172.366 337.977 170.081 340.873 168.106C343.763 166.126 346.958 160.958 347.415 161.872C347.873 162.787 345.891 168.411 346.044 169.021C346.196 169.63 354.262 171.373 357.305 170.501C360.347 169.63 367.956 167.198 367.804 168.716C367.651 170.239 359.585 178.758 357 180.276C354.415 181.799 346.653 181.342 343.605 182.403C340.562 183.469 337.154 186.778 337.154 186.778L331.722 179.234Z" fill="#FDAB74"/>
<path d="M351.677 171.556C351.677 171.556 359.591 165.169 363.042 165.98L357.36 171.556H351.677Z" fill="#FDAB74"/>
<path d="M358.579 178.247L370.553 170.233C370.553 170.233 368.346 169.398 365.914 170.233C363.475 171.074 358.579 178.247 358.579 178.247Z" fill="#FDAB74"/>
<path d="M164.806 305.047C164.294 304.761 120.42 294.925 114.677 257.71C115.786 248.728 116.719 240.026 117.292 231.994C117.798 224.992 118.621 218.771 119.676 213.244C125.145 212.397 131.699 218.277 134.638 227.003C140.698 244.962 164.647 304.297 164.806 305.047Z" fill="#E0E0E0"/>
<path d="M220.465 272.744L220.623 282.158C220.623 282.158 173.756 307.74 164.647 304.754C152.283 300.708 138.589 280.458 132.98 261.001C132.199 258.319 131.486 255.632 130.772 253.024C128.248 243.323 126.401 233.834 125.554 225.711C124.999 220.861 124.749 216.467 124.974 212.902C125.035 211.641 125.084 210.446 125.273 209.343C127.492 189.142 142.015 188.521 143.655 191.019C145.728 194.121 147.759 199.051 149.758 204.962C152.807 214.359 155.788 226.437 158.501 238.411C160.013 244.98 161.452 251.543 162.94 257.606C163.763 261.281 168.403 279.459 169.836 282.628C170.744 284.7 220.465 272.744 220.465 272.744Z" fill="#FDAB74"/>
<path d="M141.838 184.535C141.838 184.535 127.718 191.391 122.792 200.769C117.865 210.154 116.286 239.678 129.449 275.857C129.449 275.857 147.893 277.533 162.934 257.6C162.934 257.606 157.349 178.905 141.838 184.535Z" fill="#70E0DB"/>
<path d="M147.63 163.622C147.63 163.622 142.479 166.821 142.472 171.574C142.472 171.574 148.551 188.186 184.066 192.037C184.06 192.037 151.38 175.974 147.63 163.622Z" fill="#70E0DB"/>
<path d="M175.36 167.576C175.36 167.576 184.316 184.023 184.06 192.043C184.06 192.043 184.67 173.828 183.401 169.605C182.133 165.376 174.579 163.627 174.579 163.627L175.36 167.576Z" fill="#70E0DB"/>
<path d="M168.775 139.917C169.08 139.917 171.921 142.452 175.677 141.745C179.432 141.038 179.396 138.095 179.396 138.095C179.396 138.095 176.835 137.686 174.579 138.095C172.323 138.497 168.775 139.917 168.775 139.917Z" fill="white"/>
<path d="M215.868 277.521C215.868 277.521 222.471 267.472 227.793 267.277C233.116 267.082 242.975 264.322 242.188 266.29C241.402 268.258 235.286 268.459 234.695 269.642C234.104 270.824 243.761 272.597 246.523 272.792C249.285 272.987 255.791 272.792 255.589 274.169C255.394 275.546 243.865 281.262 235.725 280.476C227.592 279.69 217.538 282.841 217.538 282.841L215.868 277.521Z" fill="#FDAB74"/>
<path d="M262.558 295.577C257.431 295.101 253.175 293.529 249.913 290.897C247.115 288.642 245.206 285.711 244.395 282.42C243.133 277.326 244.779 272.28 248.486 269.867C253.236 266.777 260.357 268.404 268.027 274.34C275.91 280.44 285.568 284.242 295.957 285.339C305.383 286.332 315.041 285.01 323.15 281.622C334.228 276.997 341.209 269.123 342.306 260.025C343.062 253.755 340.782 247.685 335.971 242.53C340.306 240.105 344.483 237.265 348.275 234.108C356.823 226.997 367.499 214.943 369.797 197.941C372.145 180.58 355.439 170.087 343.239 162.421C335.539 157.582 329.454 153.761 330.844 150.209C331.978 147.308 334.484 145.498 338.294 144.834C339.758 144.578 341.306 144.517 342.867 144.596C344.635 149.063 349.11 154.785 360.347 157.454C363.969 158.313 367.877 158.722 371.755 158.722C381.339 158.722 390.747 156.241 395.264 152.018C397.276 150.135 398.868 146.985 399.843 143.048C400.642 142.549 401.441 142.012 402.239 141.434C407.58 137.582 411.19 133.53 412.97 129.386C414.342 126.193 414.622 123.006 413.799 119.898C414.439 119.014 415.049 118.106 415.628 117.174C419.731 110.556 420.158 104.572 416.866 99.8615C410.007 90.0504 388.856 87.7104 372.37 91.1169C362.201 93.2192 354.64 97.1193 350.568 102.22C348.452 103.201 346.623 104.414 345.08 105.852C340.611 110.026 338.459 116.199 338.679 124.206C338.746 126.528 339.733 128.734 341.532 130.733C340.52 134.322 340.733 138.411 342.434 143.396C340.904 143.347 339.441 143.432 338.099 143.67C333.917 144.401 331.033 146.51 329.753 149.776C328.003 154.243 334.453 158.289 342.617 163.42C348.812 167.314 355.835 171.726 361.109 177.32C367.163 183.743 369.627 190.434 368.633 197.783C366.383 214.407 355.915 226.217 347.525 233.2C343.709 236.375 339.496 239.233 335.124 241.652C332.191 238.746 328.43 236.162 323.936 234.029C318.522 231.464 312.645 229.897 307.383 229.623C301.877 229.337 297.548 230.525 295.195 232.969C293.226 235.016 291.659 238.947 295.378 246.058C297.768 250.629 304.633 252.292 314.218 250.61C320.888 249.44 328.07 246.808 334.898 243.121C335.545 243.797 336.148 244.486 336.703 245.199C340.276 249.751 341.77 254.693 341.142 259.885C340.093 268.551 333.374 276.076 322.698 280.531C308.236 286.57 285.952 286.71 268.753 273.401C260.662 267.143 253.041 265.491 247.84 268.874C243.712 271.561 241.865 277.118 243.249 282.7C244.127 286.241 246.176 289.391 249.175 291.811C252.62 294.589 257.089 296.253 262.454 296.747L262.558 295.577ZM323.424 235.102C327.564 237.064 331.161 239.501 334.014 242.256C327.393 245.796 320.455 248.325 313.998 249.453C305.09 251.013 298.518 249.544 296.414 245.516C293.732 240.379 293.598 236.326 296.036 233.791C297.994 231.762 301.518 230.763 305.816 230.763C311.029 230.769 317.376 232.238 323.424 235.102ZM347.379 145.236C348.391 149.788 351.769 153.14 356.835 154.426C360.103 155.26 363.255 154.608 366.151 152.536C369.767 152.415 372.962 151.525 373.212 151.452L373.315 151.409C373.529 151.299 375.12 150.483 377.333 149.093C378.876 148.825 380.43 148.441 382.003 147.936C387.393 148.405 392.88 147.058 398.392 143.914C397.502 146.997 396.173 149.538 394.447 151.153C391.606 153.804 386.357 155.9 380.04 156.9C373.498 157.936 366.596 157.722 360.609 156.296C350.324 153.853 345.989 148.813 344.184 144.7C345.269 144.828 346.336 145.004 347.379 145.236ZM357.134 149.764C358.744 151.604 361.304 152.329 363.92 152.506C361.957 153.505 359.683 153.932 357.128 153.28C352.671 152.146 349.708 149.398 348.665 145.547C352.537 146.577 355.817 148.252 357.134 149.764ZM348.251 142.384C348.232 140.446 348.647 138.362 349.464 136.321C350.726 139.02 352.762 141.641 355.427 143.828C358.981 146.741 363.31 148.618 368.011 149.288C367.322 150.038 366.566 150.745 365.743 151.36C362.816 151.421 359.725 150.934 358.024 148.984C356.567 147.32 353.451 145.675 349.696 144.59C349.263 144.462 348.824 144.346 348.391 144.243C348.306 143.646 348.257 143.024 348.251 142.384ZM374.401 149.471C373.565 149.947 373.01 150.245 372.84 150.33C372.474 150.428 370.346 150.983 367.749 151.238C368.328 150.702 368.895 150.111 369.45 149.453C371.078 149.599 372.73 149.605 374.401 149.471ZM371.09 147.296C371.565 146.601 372.023 145.864 372.456 145.096C374.266 146.034 376.12 146.76 377.998 147.247C377.608 147.503 377.236 147.747 376.87 147.978C374.657 148.344 372.48 148.466 370.34 148.338C370.596 148.003 370.84 147.655 371.09 147.296ZM355.457 138.192C358.548 139.026 361.81 139.587 365.145 139.873C367.145 141.732 369.243 143.292 371.419 144.535C371.005 145.273 370.566 145.973 370.114 146.638C369.755 147.162 369.364 147.698 368.944 148.222C364.158 147.68 359.756 145.852 356.183 142.92C353.994 141.123 352.244 138.99 351.043 136.766C352.415 137.29 353.884 137.765 355.457 138.192ZM398.813 142.305C393.801 145.37 389.18 146.686 385.003 146.851C386.149 146.382 387.296 145.858 388.448 145.273C393.1 142.908 396.807 140.379 399.532 137.735C399.38 139.331 399.142 140.867 398.813 142.305ZM391.118 136.583C394.167 135.486 397.032 134.151 399.709 132.591C399.733 133.713 399.721 134.822 399.666 135.906C396.984 138.819 393.039 141.61 387.911 144.224C385.869 145.267 383.839 146.114 381.833 146.766C381.54 146.735 381.254 146.705 380.967 146.662C384.497 144.09 388.478 140.623 391.118 136.583ZM374.882 139.941C379.046 139.648 383.186 138.953 387.149 137.844C387.838 137.655 388.515 137.448 389.192 137.235C387.052 140.087 384.302 142.561 381.9 144.444C381.016 145.132 380.144 145.778 379.302 146.363C377.028 145.876 374.931 145.065 373.017 144.066C373.699 142.762 374.321 141.379 374.882 139.941ZM342.483 131.72C344.044 133.176 346.056 134.505 348.464 135.657C347.519 137.917 347.044 140.245 347.062 142.396C347.068 142.933 347.098 143.463 347.159 143.975C345.989 143.737 344.83 143.572 343.696 143.481C342.056 138.862 341.709 135.059 342.483 131.72ZM373.584 140.014C373.096 141.226 372.559 142.39 371.98 143.493C370.157 142.445 368.517 141.239 367.072 139.995C369.224 140.117 371.407 140.123 373.584 140.014ZM402.154 134.736C403.471 132.92 404.324 131.068 404.696 129.246C407.763 126.894 410.501 124.188 412.86 121.153C413.33 123.707 413 126.315 411.879 128.929C410.184 132.872 406.702 136.76 401.544 140.483C401.093 140.806 400.648 141.117 400.203 141.415C400.404 140.379 400.563 139.307 400.684 138.192C400.745 137.588 400.8 136.985 400.837 136.376C401.312 135.833 401.758 135.285 402.154 134.736ZM363.816 136.851C362.292 135.2 360.865 133.365 359.561 131.421C364.639 132.354 369.864 132.451 374.108 131.653C374.809 131.519 375.474 131.367 376.108 131.202C375.644 133.804 374.943 136.382 374.047 138.801C371.236 138.966 368.419 138.935 365.658 138.716C364.987 138.088 364.377 137.46 363.816 136.851ZM387.625 122.713C388.417 121.592 389.125 120.599 389.936 119.831C392.448 123.103 393.35 126.565 392.624 130.136C392.234 132.043 391.405 133.883 390.314 135.608C389.106 136.034 387.942 136.394 386.826 136.705C383.113 137.741 379.235 138.411 375.333 138.722C376.211 136.254 376.894 133.646 377.339 131.025C377.351 130.964 377.358 130.897 377.37 130.836C383.211 128.929 385.625 125.529 387.625 122.713ZM350.141 134.828C350.458 134.2 350.811 133.591 351.208 132.987C353.988 135.108 356.878 134.95 357.024 134.944L356.951 133.761C356.829 133.767 354.317 133.889 351.897 132.019C352.439 131.293 353.043 130.599 353.708 129.941C354.348 130.148 355.006 130.349 355.695 130.538C356.427 130.739 357.171 130.922 357.921 131.086C359.372 133.365 361.054 135.59 362.95 137.649C363.231 137.954 363.511 138.253 363.798 138.545C361.036 138.24 358.341 137.741 355.768 137.046C353.781 136.51 351.945 135.876 350.281 135.163C350.226 135.053 350.183 134.938 350.141 134.828ZM394.825 118.173C395.624 118.216 396.411 118.362 397.16 118.606C397.264 118.88 397.356 119.155 397.447 119.417C398.727 123.176 399.447 127.259 399.66 131.245C397.099 132.78 394.533 133.999 392.094 134.956C392.88 133.493 393.472 131.958 393.795 130.379C394.594 126.449 393.606 122.658 390.868 119.1C391.874 118.435 393.106 118.082 394.825 118.173ZM345.403 125.608C345.928 126.071 346.531 126.522 347.196 126.949C347.44 127.704 347.726 128.411 348.056 129.075C347.879 130.794 348.117 132.616 348.72 134.438C346.312 133.25 344.33 131.878 342.861 130.379C343.416 128.704 344.276 127.125 345.403 125.608ZM403.16 130.373C402.739 131.592 402.081 132.823 401.197 134.042C401.105 134.17 401.008 134.298 400.916 134.42C400.934 133.572 400.922 132.725 400.892 131.878C401.666 131.397 402.422 130.897 403.16 130.373ZM349.72 131.586C349.915 131.811 350.116 132.019 350.312 132.214C350.074 132.573 349.848 132.933 349.635 133.298C349.421 132.512 349.281 131.732 349.226 130.97C349.385 131.184 349.549 131.391 349.72 131.586ZM349.385 128.198C350.33 128.667 351.36 129.112 352.47 129.514C351.945 130.069 351.458 130.641 351.007 131.239C350.866 131.098 350.726 130.946 350.592 130.788C350.092 130.215 349.653 129.569 349.275 128.844C349.306 128.624 349.342 128.411 349.385 128.198ZM357.079 127.296C358.512 126.424 360.109 125.718 361.865 125.236C367.798 123.615 372.529 122.08 376.156 120.58C376.797 122.884 376.864 126.162 376.315 129.922C375.565 130.136 374.76 130.331 373.888 130.495C369.218 131.373 363.7 131.104 358.677 130.056C358.116 129.154 357.579 128.228 357.079 127.296ZM403.544 125.388C403.763 126.418 403.788 127.491 403.611 128.576C402.684 129.27 401.751 129.916 400.819 130.513C400.563 126.638 399.819 122.78 398.624 119.209C401.081 120.471 402.983 122.75 403.544 125.388ZM356.073 127.96C356.384 128.539 356.707 129.112 357.049 129.685C356.244 129.484 355.457 129.264 354.695 129.027C355.134 128.655 355.591 128.295 356.073 127.96ZM384.765 114.98C386.284 115.986 387.771 117.278 389.186 118.917C388.253 119.788 387.479 120.879 386.655 122.031C384.741 124.73 382.613 127.729 377.565 129.52C378.065 125.736 377.949 122.488 377.248 120.111C381.162 118.393 383.619 116.705 384.765 114.98ZM347.428 108.722C347.001 110.812 346.678 112.78 346.47 114.633C346.227 114.828 345.977 115.029 345.733 115.242C342.117 118.32 342.373 121.092 343.227 122.878C343.538 123.53 343.989 124.17 344.562 124.791C343.452 126.254 342.581 127.771 341.965 129.392C340.636 127.753 339.904 125.986 339.849 124.176C339.636 116.522 341.666 110.654 345.873 106.723C346.836 105.827 347.922 105.023 349.123 104.31C348.312 105.712 347.739 107.186 347.428 108.722ZM353.201 121.537C353.823 123.286 354.598 125.096 355.518 126.906C354.762 127.43 354.055 127.997 353.403 128.6C352.074 128.137 350.836 127.613 349.72 127.046C350.348 125.261 351.555 123.365 353.201 121.537ZM387.704 103.719C390.216 103.987 392.771 104.523 395.295 105.328C403.587 107.972 409.885 112.957 412.141 118.661C412.275 119.002 412.397 119.343 412.5 119.685C410.177 122.805 407.592 125.407 404.904 127.582C404.94 126.76 404.873 125.949 404.702 125.151C403.989 121.787 401.355 118.947 398.075 117.686C395.752 111.556 392.21 106.827 387.704 103.719ZM347.592 123.067C348.958 121.671 350.555 120.294 352.366 118.905C352.488 119.343 352.622 119.794 352.762 120.245C350.879 122.226 349.44 124.359 348.659 126.473C348.513 126.388 348.367 126.303 348.22 126.211C347.946 125.248 347.732 124.194 347.592 123.067ZM356.348 118.57C359.811 115.772 363.932 113.682 368.06 112.634C370.919 113.95 373.407 115.943 375.175 118.399C375.394 118.71 375.596 119.063 375.766 119.471C372.242 120.94 367.572 122.457 361.554 124.097C359.713 124.596 358.036 125.334 356.53 126.242C355.585 124.371 354.774 122.463 354.128 120.556C354.811 119.88 355.555 119.215 356.348 118.57ZM346.538 124.206C346.592 124.535 346.653 124.858 346.72 125.175C346.513 125.011 346.318 124.852 346.129 124.682C346.263 124.523 346.397 124.365 346.538 124.206ZM346.336 122.701C345.977 123.085 345.635 123.469 345.306 123.859C344.879 123.378 344.538 122.878 344.294 122.366C343.337 120.367 344.019 118.326 346.312 116.303C346.129 118.643 346.135 120.775 346.336 122.701ZM351.348 112.914C351.409 114.359 351.647 115.967 352.049 117.674C350.342 118.972 348.806 120.257 347.452 121.568C347.324 119.66 347.373 117.552 347.604 115.254C348.867 114.292 350.123 113.524 351.348 112.914ZM363.658 111.208C364.548 111.385 365.42 111.616 366.273 111.915C361.573 113.396 357.073 116.095 353.72 119.289C353.598 118.899 353.488 118.515 353.39 118.131C356.335 115.949 359.792 113.694 363.658 111.208ZM383.759 114.359C382.76 115.839 380.491 117.375 376.992 118.941C376.943 118.96 376.9 118.984 376.852 119.002C376.644 118.521 376.4 118.088 376.132 117.71C374.529 115.48 372.37 113.609 369.883 112.238C373.888 111.513 378.931 111.574 383.759 114.359ZM375.949 99.5141C366.596 98.6123 358.957 99.1851 353.098 101.208C354.122 100.227 355.305 99.2887 356.652 98.4051C360.762 95.7055 366.279 93.5909 372.608 92.2808C380.967 90.5562 390.301 90.3551 398.227 91.7323C406.672 93.2009 412.945 96.3271 415.896 100.55C418.939 104.907 418.512 110.294 414.622 116.565C414.208 117.229 413.787 117.875 413.348 118.502C413.311 118.411 413.275 118.314 413.238 118.222C410.854 112.195 404.282 106.955 395.648 104.2C392.204 103.103 388.753 102.482 385.43 102.336C382.583 100.8 379.4 99.8493 375.949 99.5141ZM385.467 113.335C385.808 111.568 384.851 109.819 382.625 108.137C380.687 106.674 378.577 105.419 376.4 104.42C379.12 103.725 382.095 103.426 385.174 103.536C391.301 106.961 394.752 112.701 396.624 117.235C396.057 117.107 395.472 117.022 394.886 116.991C392.801 116.882 391.307 117.351 390.106 118.173C388.649 116.485 387.04 115.072 385.296 113.944C385.375 113.743 385.43 113.536 385.467 113.335ZM361.884 110.946C358.652 113.03 355.695 114.98 353.086 116.9C352.714 115.248 352.519 113.725 352.5 112.39C356.079 110.879 359.359 110.696 361.884 110.946ZM375.833 100.69C378.357 100.934 380.613 101.507 382.625 102.317C379.802 102.421 377.108 102.872 374.632 103.676C372.145 102.707 369.608 102.08 367.17 101.848C361.14 101.275 356.159 103.073 352.75 107.04C351.878 108.058 351.415 109.636 351.336 111.604C350.171 112.141 348.982 112.817 347.781 113.652C347.976 112.159 348.239 110.593 348.58 108.96C349.001 106.906 349.915 104.974 351.305 103.183C357.213 100.526 365.426 99.6848 375.833 100.69ZM368.779 111.251C368.578 111.293 368.377 111.342 368.169 111.391C367.163 110.952 366.121 110.593 365.054 110.312C365.109 110.276 365.158 110.245 365.212 110.215C366.712 109.252 368.267 108.253 369.871 107.211C371.303 106.278 372.907 105.523 374.644 104.938C377.23 105.992 379.711 107.406 381.918 109.075C383.753 110.465 384.558 111.818 384.308 113.109C384.296 113.176 384.278 113.25 384.259 113.317C381.174 111.568 377.717 110.678 374.029 110.678C372.322 110.678 370.566 110.867 368.779 111.251ZM372.919 104.298C371.608 104.834 370.37 105.474 369.224 106.217C367.621 107.259 366.072 108.253 364.572 109.215C364.182 109.465 363.798 109.715 363.414 109.959C363.091 109.904 362.768 109.855 362.444 109.819C359.823 109.502 356.354 109.599 352.543 111.092C352.665 109.666 353.037 108.539 353.659 107.808C356.61 104.371 360.695 102.927 365.084 102.927C367.645 102.927 370.316 103.42 372.919 104.298Z" fill="white"/>
<path d="M321.181 392.839V397.567C321.181 400.295 318.85 402.511 315.965 402.511H78.1521C73.4314 399.727 69.1275 396.437 65.2728 392.592C63.7882 391.11 62.3817 389.555 61.0404 387.907H315.965C318.843 387.894 321.181 390.11 321.181 392.839Z" fill="#1E90A4"/>
<path d="M636.356 246.662C636.356 246.662 582.922 234.998 479.829 246.662L468.001 366.783L609.548 359.787L636.356 246.662Z" fill="#18BDDE"/>
<path d="M466.91 246.662L466.66 249.416L466.154 254.986L464.702 270.958V271.043L461.3 308.416L460.91 312.652L457.85 346.326L456.655 359.507L454.393 384.382L452.722 402.767L451.6 415.064C445.235 415.089 438.742 415.113 432.157 415.131C425.176 415.15 418.091 415.174 410.933 415.192H410.263C409.287 415.192 408.306 415.192 407.33 415.198C406.8 415.198 406.269 415.198 405.745 415.198C397.551 415.223 389.271 415.229 380.955 415.241C379.632 415.241 378.309 415.241 376.992 415.247H375.821C373.449 415.253 371.072 415.253 368.694 415.259C367.157 415.259 365.621 415.259 364.085 415.265C360.524 415.265 356.963 415.271 353.409 415.271C352.573 415.271 351.744 415.271 350.909 415.271C349.897 415.271 348.891 415.271 347.879 415.271C347.44 415.271 347.001 415.271 346.562 415.271C345.983 415.271 345.397 415.271 344.818 415.271H343.355C336.002 415.278 328.673 415.278 321.4 415.278H316.876C315.845 386.984 317.266 320.19 353.75 320.19C364.7 320.19 373.577 320.159 380.693 319.55C395.77 318.258 402.946 314.364 405.196 302.621C406.373 296.479 406.208 288.191 405.117 277.009C402.849 253.743 420.097 246.558 436.937 244.974C439.181 244.76 441.418 244.645 443.601 244.614C446.046 244.571 448.424 244.626 450.667 244.736C456.935 245.047 462.154 245.815 464.885 246.278C466.172 246.509 466.91 246.662 466.91 246.662Z" fill="white"/>
<path d="M493.389 246.662L492.053 261.317L486.194 325.723L484.268 346.929L483.633 353.907L482.615 365.052L482.524 366.064L480.189 391.749L479.274 401.792L478.079 414.936C475.945 414.949 473.793 414.961 471.622 414.967C470.854 414.973 470.086 414.973 469.312 414.979C468.312 414.985 467.3 414.991 466.288 414.991C465.788 414.991 465.288 414.997 464.788 414.997C461.91 415.016 459.008 415.022 456.075 415.034C454.581 415.04 453.088 415.046 451.582 415.052C445.217 415.076 438.723 415.101 432.139 415.119C425.158 415.137 418.073 415.162 410.915 415.18H410.244C409.269 415.18 408.287 415.18 407.312 415.186C406.781 415.186 406.251 415.186 405.727 415.186C397.532 415.211 389.253 415.217 380.936 415.229C379.613 415.229 378.29 415.229 376.973 415.235H375.803C373.431 415.241 371.053 415.241 368.675 415.247C367.139 415.247 365.603 415.247 364.066 415.253C360.506 415.253 356.945 415.259 353.39 415.259C352.555 415.259 351.726 415.259 350.891 415.259C349.879 415.259 348.873 415.259 347.86 415.259C347.421 415.259 346.982 415.259 346.543 415.259C345.964 415.259 345.379 415.259 344.8 415.259H343.337C342.306 386.966 343.739 320.177 380.217 320.177C380.583 320.177 380.949 320.177 381.308 320.177C421.14 320.074 436.571 314.285 444.07 284.498C445.125 280.324 446.015 275.68 446.802 270.513C446.893 269.885 447.009 269.282 447.143 268.691C447.216 268.356 447.296 268.02 447.387 267.698C447.387 267.691 447.387 267.691 447.387 267.685C449.216 260.732 453.594 256.016 458.959 252.835C460.825 251.726 462.812 250.805 464.849 250.044C465.452 249.818 466.056 249.605 466.672 249.404C471.116 247.947 475.72 247.174 479.829 246.784C487.462 246.071 493.389 246.662 493.389 246.662Z" fill="#1E064B"/>
<path d="M493.389 246.662L492.053 261.317L486.194 325.723L484.268 346.929L483.633 353.907L482.615 365.052L482.524 366.064L480.189 391.749L479.274 401.792L478.079 414.936C475.945 414.949 473.793 414.961 471.622 414.967C470.854 414.973 470.086 414.973 469.312 414.979C468.312 414.985 467.3 414.991 466.288 414.991C465.788 414.991 465.288 414.997 464.788 414.997C461.91 415.016 459.008 415.022 456.075 415.034C454.581 415.04 453.088 415.046 451.582 415.052C445.217 415.076 438.723 415.101 432.139 415.119C425.158 415.137 418.073 415.162 410.915 415.18H410.244C409.269 415.18 408.287 415.18 407.312 415.186C406.781 415.186 406.251 415.186 405.727 415.186C397.532 415.211 389.253 415.217 380.936 415.229C379.613 415.229 378.29 415.229 376.973 415.235H375.803C373.431 415.241 371.053 415.241 368.675 415.247C367.139 415.247 365.603 415.247 364.066 415.253C360.506 415.253 356.945 415.259 353.39 415.259C352.555 415.259 351.726 415.259 350.891 415.259C349.879 415.259 348.873 415.259 347.86 415.259C347.421 415.259 346.982 415.259 346.543 415.259C345.964 415.259 345.379 415.259 344.8 415.259H343.337C342.306 386.966 343.739 320.177 380.217 320.177C380.583 320.177 380.949 320.177 381.308 320.177C421.14 320.074 436.571 314.285 444.07 284.498C445.125 280.324 446.015 275.68 446.802 270.513C446.893 269.885 447.009 269.282 447.143 268.691C447.216 268.356 447.296 268.02 447.387 267.698C447.387 267.691 447.387 267.691 447.387 267.685C449.216 260.732 453.594 256.016 458.959 252.835C460.825 251.726 462.812 250.805 464.849 250.044C465.452 249.818 466.056 249.605 466.672 249.404C471.116 247.947 475.72 247.174 479.829 246.784C487.462 246.071 493.389 246.662 493.389 246.662Z" fill="url(#paint1_linear)" style="mix-blend-mode:overlay"/>
<path d="M456.825 163.006C456.825 163.006 453.435 146.961 473.787 142.555C494.139 138.149 510.747 149.295 519.813 157.844C528.885 166.4 523.441 192.573 536.921 193.353C550.407 194.133 562.516 200.343 559.742 215.254C556.962 230.166 571.143 223.597 569.851 238.149C568.558 252.701 557.407 265.662 529.141 265.918C500.876 266.18 450.832 251.226 449.789 249.331C448.753 247.436 419.512 232.414 439.4 217.192C458.959 202.226 425.219 173.347 456.825 163.006Z" fill="#300B39"/>
<path d="M517.301 414.662C513.259 414.699 509.076 414.735 504.766 414.766C501.943 414.79 499.077 414.809 496.151 414.827C494.657 414.839 493.151 414.845 491.627 414.857C488.889 414.876 486.115 414.894 483.298 414.912C483.061 414.912 482.817 414.912 482.573 414.918C481.085 414.924 479.585 414.937 478.079 414.943C475.945 414.955 473.793 414.967 471.623 414.973C470.854 414.979 470.086 414.979 469.312 414.985C468.312 414.991 467.3 414.997 466.288 414.997C465.788 414.997 465.288 415.004 464.788 415.004C461.91 415.022 459.008 415.028 456.075 415.04C454.582 415.046 453.088 415.052 451.582 415.058C445.217 415.083 438.724 415.107 432.139 415.125C425.158 415.144 418.073 415.168 410.915 415.186H410.245C409.269 415.186 408.288 415.186 407.312 415.192C406.782 415.192 406.251 415.192 405.727 415.192C397.533 415.217 389.253 415.223 380.937 415.235C379.614 415.235 378.291 415.235 376.974 415.241H375.803C373.431 415.247 371.053 415.247 368.676 415.253C367.139 415.253 365.603 415.253 364.066 415.259C360.506 415.259 356.945 415.266 353.391 415.266C352.555 415.266 351.726 415.266 350.891 415.266C349.879 415.266 348.873 415.266 347.861 415.266C347.422 415.266 346.983 415.266 346.544 415.266C347.257 414.193 348.159 413.212 349.293 412.395C352.592 410.019 356.311 407.52 360.451 405.028C364.981 402.298 369.999 399.574 375.48 397.015C390.417 390.043 408.8 384.315 430.072 383.102C438.62 382.615 446.741 383.133 454.38 384.376C458.075 384.979 461.654 385.747 465.117 386.667C470.422 388.063 475.452 389.793 480.195 391.743C484.17 393.377 487.944 395.168 491.499 397.051C491.913 397.271 492.322 397.49 492.73 397.709C502.809 403.194 511.088 409.348 517.301 414.662Z" fill="#1E90A4"/>
<path d="M492.724 397.721C492.34 398.13 491.919 398.501 491.456 398.83C490.651 399.409 489.73 399.86 488.682 400.159C486.219 400.866 482.993 401.402 479.274 401.798C474.927 402.261 469.897 402.529 464.587 402.663C460.715 402.767 456.703 402.791 452.697 402.767C432.919 402.651 413.451 401.304 413.451 401.304C413.451 401.304 405.733 407.307 405.727 415.198C397.532 415.223 389.253 415.229 380.936 415.241C379.613 415.241 378.29 415.241 376.973 415.247H375.803C373.431 415.253 371.053 415.253 368.675 415.259C367.139 415.259 365.603 415.259 364.066 415.265C362.853 411.944 361.621 408.489 360.445 405.04C356.677 393.986 353.482 382.98 353.232 376.667C352.201 350.275 417.841 346.308 457.837 346.332C458.898 346.332 459.941 346.338 460.965 346.344C464.19 346.363 467.22 346.405 470.001 346.466C470.854 346.478 471.677 346.503 472.482 346.521C477.53 346.643 481.591 346.807 484.268 346.935C486.59 347.045 487.877 347.124 487.877 347.124C487.877 347.124 488.718 349.288 489.864 352.737C490.974 356.058 492.37 360.579 493.59 365.522C493.712 366.003 493.827 366.49 493.937 366.978C494.114 367.74 494.291 368.501 494.456 369.275C496.821 380.269 497.809 392.328 492.724 397.721Z" fill="#236192"/>
<path d="M551.7 399.817C543.25 406.801 531.135 411.511 517.679 414.656H517.667C517.563 414.68 517.478 414.705 517.38 414.729C517.356 414.705 517.331 414.686 517.307 414.662C513.265 414.698 509.082 414.735 504.772 414.766C501.949 414.79 499.083 414.808 496.157 414.826C494.663 414.839 493.157 414.845 491.633 414.857C488.895 414.875 486.121 414.893 483.304 414.912C483.067 414.912 482.823 414.912 482.579 414.918C481.091 414.924 479.591 414.936 478.085 414.942C475.951 414.954 473.799 414.967 471.629 414.973C470.861 414.979 470.092 414.979 469.318 414.985C468.318 414.991 467.306 414.997 466.294 414.997C465.794 414.997 465.294 415.003 464.794 415.003C461.916 415.021 459.014 415.028 456.082 415.04C454.588 415.046 453.094 415.052 451.588 415.058C445.223 415.082 438.73 415.107 432.145 415.125C425.164 415.143 418.079 415.168 410.921 415.186H410.251C409.275 415.186 408.294 415.186 407.318 415.192C406.788 415.192 406.257 415.192 405.733 415.192C397.539 415.216 389.259 415.223 380.943 415.235C379.62 415.235 378.297 415.235 376.98 415.241H376.413C376.15 409.379 375.846 403.303 375.48 397.02C375.48 396.99 375.48 396.959 375.474 396.929C374.608 381.969 414.421 369.013 456.642 359.507C460.264 358.69 463.904 357.904 467.532 357.136C468.013 357.033 468.495 356.935 468.977 356.832C469.111 356.801 469.245 356.777 469.385 356.746C474.171 355.753 478.939 354.802 483.634 353.9C485.725 353.498 487.804 353.108 489.865 352.724C492.364 352.261 494.84 351.81 497.273 351.372C518.088 347.654 536.159 345.003 545.975 343.645C550.968 342.95 553.828 342.59 553.828 342.59C553.828 342.59 556.145 351.445 557.529 362.346C559.297 376.192 559.559 393.321 551.7 399.817Z" fill="#2D719B"/>
<path d="M548.194 365.235C538.982 386.149 482.426 368.118 467.995 357.49C448.369 343.036 475.427 341.396 469.324 325.376C465.983 316.607 449.43 301.5 446.558 289.056C445.089 282.701 449.466 242.683 453.356 234.913C457.252 227.149 475.665 220.367 489.542 221.184C512.058 222.518 518.911 225.535 521.849 232.829C526.221 243.694 529.05 257.728 530.586 270.44C531.757 280.013 532.184 288.837 531.989 294.992C531.982 295.382 531.964 295.748 531.946 296.113C531.824 298.715 532.318 301.921 533.196 305.528C535.409 314.626 540.116 326.265 543.835 337.125C543.841 337.131 543.841 337.137 543.841 337.137C547.841 348.776 550.712 359.507 548.194 365.235Z" fill="#FFC246"/>
<path d="M453.923 159.447C453.478 156.437 452.832 149.77 456.636 145.053C459.923 140.983 465.41 138.655 472.952 138.149C484.951 137.339 493.846 140.148 499.193 142.64C505.003 145.352 508.972 149.423 509.094 149.544L507.509 148.892C507.393 148.777 495.608 137.399 473.007 138.929C465.69 139.423 461.325 141.318 458.185 145.218C454.563 149.709 455.228 154.353 455.655 157.235C455.679 157.381 454.258 158.667 454.258 158.697L457.368 159.794C457.368 159.788 453.935 159.526 453.923 159.447Z" fill="#0D3563"/>
<path d="M559.931 214.078L558.212 212.14C559.852 206.613 559.297 201.653 555.584 197.399C552.371 193.719 548.578 191.988 543.939 192.695C532.769 194.401 530.733 191.885 530.653 191.726L529.909 192.47L530.038 191.19L530.726 190.038C530.745 190.069 533.324 193.524 543.823 191.921C548.731 191.172 553.486 192.969 556.876 196.863C560.766 201.324 561.65 208.301 559.931 214.078Z" fill="#0D3563"/>
<path d="M643.459 256.174L638.569 276.418L612.395 384.778C604.798 392.493 596.165 398.892 586.794 403.742C583.989 405.193 581.124 406.503 578.203 407.667C567.735 411.847 556.541 414.169 545.005 414.333C543.268 414.364 541.475 414.382 539.64 414.406C536.695 414.449 533.635 414.486 530.452 414.522C527.733 414.553 524.94 414.583 522.063 414.608C521.776 414.608 521.489 414.614 521.203 414.614C520.038 414.626 518.868 414.638 517.679 414.644H517.667C517.563 414.668 517.478 414.693 517.38 414.717C517.356 414.693 517.331 414.675 517.307 414.65C513.265 414.687 509.082 414.723 504.772 414.754C501.949 414.778 499.083 414.796 496.157 414.815C494.663 414.827 493.157 414.833 491.633 414.845C488.895 414.863 486.121 414.882 483.304 414.9C483.066 414.9 482.823 414.9 482.579 414.906C481.091 414.912 479.591 414.924 478.085 414.93C475.951 414.943 473.799 414.955 471.629 414.961C470.86 414.967 470.092 414.967 469.318 414.973C468.318 414.979 467.306 414.985 466.294 414.985C465.794 414.985 465.294 414.991 464.794 414.991C464.66 411.408 464.574 407.228 464.593 402.645C464.611 397.691 464.757 392.274 465.117 386.655C465.678 377.819 466.757 368.49 468.696 359.714V359.708C468.806 359.203 468.922 358.703 469.037 358.203C469.153 357.71 469.269 357.228 469.385 356.741C470.263 353.194 471.281 349.757 472.482 346.503C475.677 337.807 480.103 330.421 486.2 325.711C489.395 323.237 493.041 321.5 497.211 320.696C498.943 320.354 500.766 320.184 502.686 320.184C503.497 320.184 504.308 320.184 505.107 320.184C506.954 320.19 508.771 320.196 510.558 320.214C515.453 320.245 520.099 320.287 524.489 320.257C526.215 320.245 527.891 320.227 529.537 320.184H529.55C532.385 320.123 535.092 320.007 537.671 319.824C559.522 318.289 571.82 311.659 570.155 284.913C569.893 280.72 569.29 276.034 568.326 270.793C564.747 251.33 571.741 243.877 587.952 241.854H587.958C587.958 241.854 587.958 241.854 587.965 241.854C595.043 240.976 603.884 241.135 614.364 241.781C614.547 241.793 614.736 241.805 614.925 241.817C619.638 242.116 624.674 242.506 630.027 242.945C635.576 243.426 644.77 250.769 643.459 256.174Z" fill="white"/>
<path d="M466.154 226.845C466.647 231.092 467.251 235.053 478.537 234.883C485.944 234.767 496.37 229.02 495.145 222.652C494.559 219.624 489.194 211.659 488.584 193.804L487.225 194.127L464.41 199.545C464.41 199.545 465.209 206.754 465.483 213.566C465.715 219.282 465.867 224.353 466.154 226.845Z" fill="#FDAB74"/>
<path d="M464.416 204.402C464.416 204.402 465.215 211.611 465.489 218.423C478.335 217.576 484.67 208.832 487.212 202.226L464.416 204.402Z" fill="#FD9A5D"/>
<path d="M451.838 206.552C451.838 206.552 479.402 219.508 487.212 202.226C495.023 184.944 503.839 174.98 486.566 165.974C469.3 156.973 462.873 162.013 458.868 167.144C454.85 172.287 444.869 202.738 451.838 206.552Z" fill="#FDAB74"/>
<path d="M481.225 168.192C481.225 168.192 469.666 165.443 458.856 165.626C451.503 165.748 450.747 150.544 467.123 145.401C483.719 140.184 502.595 146.632 509.088 151.336C519.807 159.1 498.15 198.386 497.029 198.563C495.907 198.746 489.2 201.628 489.2 201.628C489.2 201.628 487.493 196.113 489.036 194.974C494.029 191.275 493.992 184.157 488.066 185.059C483.054 185.821 487.841 169.1 481.225 168.192Z" fill="#300B39"/>
<path d="M446.272 285.357C441.949 283.913 438.12 281.488 434.949 278.916C440.272 276.089 445.894 268.149 447.162 268.721C448.588 269.367 446.272 285.357 446.272 285.357Z" fill="#303876"/>
<path d="M645.087 253.84L641.959 287.332L636.295 347.923C631.82 359.141 625.766 369.275 618.48 378.051C616.541 380.391 614.511 382.633 612.401 384.772C604.804 392.487 596.171 398.885 586.8 403.736C583.995 405.186 581.13 406.497 578.209 407.66C567.741 411.841 556.547 414.163 545.012 414.327C543.274 414.358 541.481 414.376 539.646 414.4C536.701 414.443 533.641 414.479 530.458 414.516C527.739 414.546 524.946 414.577 522.069 414.601C521.782 414.601 521.496 414.607 521.209 414.607C520.044 414.62 518.874 414.632 517.685 414.638H517.673C517.569 414.662 517.484 414.687 517.386 414.711C517.362 414.687 517.337 414.668 517.313 414.644C513.271 414.681 509.088 414.717 504.778 414.748C501.955 414.772 499.089 414.79 496.163 414.808C494.669 414.821 493.163 414.827 491.639 414.839C491.474 410.305 491.383 404.821 491.468 398.812C491.48 398.227 491.486 397.636 491.499 397.039C491.681 388.294 492.273 378.544 493.645 369.001C493.742 368.319 493.84 367.642 493.95 366.96C494.029 366.466 494.108 365.967 494.187 365.473C494.992 360.622 496.004 355.863 497.285 351.366C500.906 338.63 506.649 327.947 515.624 323.023C518.289 321.561 521.233 320.604 524.495 320.257C526.093 320.08 527.757 320.056 529.507 320.184C529.519 320.184 529.531 320.184 529.544 320.184H529.556C532.494 320.397 535.317 320.61 538.024 320.811C541.786 321.086 545.329 321.342 548.657 321.555C591.763 324.352 599.866 320.799 589.666 275.181C584.867 253.712 591.324 245.242 603.731 242.713C606.926 242.061 610.511 241.799 614.401 241.823C614.578 241.823 614.748 241.823 614.925 241.823C621.601 241.896 629.143 242.743 637.112 243.773C641.38 244.346 646.056 247.576 645.087 253.84Z" fill="#1E064B"/>
<path d="M645.087 253.84L641.959 287.332L636.295 347.923C631.82 359.141 625.766 369.275 618.48 378.051C616.541 380.391 614.511 382.633 612.401 384.772C604.804 392.487 596.171 398.885 586.8 403.736C583.995 405.186 581.13 406.497 578.209 407.66C567.741 411.841 556.547 414.163 545.012 414.327C543.274 414.358 541.481 414.376 539.646 414.4C536.701 414.443 533.641 414.479 530.458 414.516C527.739 414.546 524.946 414.577 522.069 414.601C521.782 414.601 521.496 414.607 521.209 414.607C520.044 414.62 518.874 414.632 517.685 414.638H517.673C517.569 414.662 517.484 414.687 517.386 414.711C517.362 414.687 517.337 414.668 517.313 414.644C513.271 414.681 509.088 414.717 504.778 414.748C501.955 414.772 499.089 414.79 496.163 414.808C494.669 414.821 493.163 414.827 491.639 414.839C491.474 410.305 491.383 404.821 491.468 398.812C491.48 398.227 491.486 397.636 491.499 397.039C491.681 388.294 492.273 378.544 493.645 369.001C493.742 368.319 493.84 367.642 493.95 366.96C494.029 366.466 494.108 365.967 494.187 365.473C494.992 360.622 496.004 355.863 497.285 351.366C500.906 338.63 506.649 327.947 515.624 323.023C518.289 321.561 521.233 320.604 524.495 320.257C526.093 320.08 527.757 320.056 529.507 320.184C529.519 320.184 529.531 320.184 529.544 320.184H529.556C532.494 320.397 535.317 320.61 538.024 320.811C541.786 321.086 545.329 321.342 548.657 321.555C591.763 324.352 599.866 320.799 589.666 275.181C584.867 253.712 591.324 245.242 603.731 242.713C606.926 242.061 610.511 241.799 614.401 241.823C614.578 241.823 614.748 241.823 614.925 241.823C621.601 241.896 629.143 242.743 637.112 243.773C641.38 244.346 646.056 247.576 645.087 253.84Z" fill="url(#paint2_linear)" style="mix-blend-mode:overlay"/>
<path d="M380.51 301.195C380.51 301.195 373.23 290.117 367.359 289.897C361.493 289.678 350.623 286.637 351.494 288.813C352.366 290.982 359.103 291.201 359.756 292.505C360.408 293.809 349.757 295.766 346.714 295.979C343.672 296.198 336.502 295.979 336.715 297.502C336.935 299.026 349.641 305.321 358.61 304.455C367.578 303.584 378.662 307.064 378.662 307.064L380.51 301.195Z" fill="#FDAB74"/>
<path d="M465.001 225.943L464.483 302.938C464.483 302.938 462.636 306.607 459.185 311.616C457.996 313.334 456.63 315.211 455.082 317.149C448.424 325.479 438.486 334.986 426.078 338.185C424.871 338.502 423.633 338.752 422.377 338.941C415.622 339.934 409.019 338.484 402.953 335.79C402.934 335.784 402.928 335.784 402.928 335.784C385.759 328.167 372.84 310.647 372.84 310.647C369.816 302.396 374.766 296.802 374.766 296.802C374.766 296.802 409.44 304.596 412.744 302.944C416.049 301.293 435.309 245.827 439.894 238.862C444.485 231.878 465.001 225.943 465.001 225.943Z" fill="#FFC246"/>
<path d="M533.202 305.528L502.095 315.376C505.199 303.334 532.043 291.628 532.043 291.628L531.995 294.986C531.989 295.376 531.97 295.741 531.952 296.107C531.83 298.715 532.318 301.926 533.202 305.528Z" fill="#F87204"/>
<path d="M459.63 310.97C458.447 312.688 456.63 315.205 455.082 317.143C448.424 325.473 438.486 334.979 426.078 338.179C452.984 325.315 450.198 287.856 451.509 293.554C452.844 299.349 458.715 309.337 458.715 309.337L459.63 310.97Z" fill="#F87204"/>
<path d="M505.138 314.279C505.138 314.279 495.279 318.813 492.718 322.95C490.157 327.088 486.999 339.501 488.975 341.67C490.944 343.84 499.321 336.107 500.065 332.56C500.803 329.014 503.315 329.312 505.68 327.685C508.046 326.058 509.82 321.329 509.82 321.329L505.138 314.279Z" fill="#FDAB74"/>
<path d="M496.279 320.098C496.279 320.098 486.968 329.099 487.999 329.598C489.035 330.104 494.285 327.508 494.87 326.424C495.455 325.333 496.279 320.098 496.279 320.098Z" fill="#FDAB74"/>
<path d="M494.98 221.372C494.98 221.372 513.259 222.707 521.282 225.607C529.306 228.502 577.947 288.368 578.563 303.803C578.789 309.373 572.1 325.412 511.027 322.889C511.027 322.889 502.077 320.64 502.095 315.381C502.114 310.116 534.805 301.207 535.098 295.564C535.397 289.921 505.083 279.824 505.381 268.532C505.674 257.24 494.98 221.372 494.98 221.372Z" fill="#FFC246"/>
<path d="M346.05 169.087L341.873 167.351L345.416 163.591L347.19 164.377L346.05 169.087Z" fill="#FDAB74"/>
<path d="M720.734 231.585L680.933 193.292C674.58 187.179 664 191.682 664 200.498V279.477C664 288.439 674.881 292.877 681.148 286.47L720.949 245.784C724.834 241.813 724.737 235.436 720.734 231.585Z" fill="white"/>
<defs>
<linearGradient id="paint0_linear" x1="381.359" y1="312.779" x2="243.241" y2="312.779" gradientUnits="userSpaceOnUse">
<stop stop-color="white"/>
<stop offset="1" stop-color="white" stop-opacity="0"/>
</linearGradient>
<linearGradient id="paint1_linear" x1="517.022" y1="415.699" x2="443.442" y2="415.699" gradientUnits="userSpaceOnUse">
<stop stop-color="white"/>
<stop offset="1" stop-color="white" stop-opacity="0"/>
</linearGradient>
<linearGradient id="paint2_linear" x1="669.403" y1="415.29" x2="594.1" y2="415.29" gradientUnits="userSpaceOnUse">
<stop stop-color="white"/>
<stop offset="1" stop-color="white" stop-opacity="0"/>
</linearGradient>
</defs>
</svg>
